{
  "value": [
    "s",
    "h",
    "a",
    "r",
    "m",
    "a",
    ".",
    "r",
    "a",
    "j",
    "e",
    "s",
    "h",
    "w",
    "a",
    "r",
    "6",
    "@",
    "g",
    "m",
    "a",
    "i",
    "l",
    ".",
    "c",
    "o",
    "m"
  ]
}