{
  "uid" : "b1a8273437954620fa374b796ffaacdd",
  "name" : "behaviors",
  "children" : [ {
    "name" : "Given I open the url \"http://google.com\"",
    "uid" : "3f7b1f6d3ef888ca",
    "parentUid" : "b1a8273437954620fa374b796ffaacdd",
    "status" : "broken",
    "time" : {
      "start" : 1584534670965,
      "stop" : 1584534670967,
      "duration" : 2
    },
    "flaky" : false,
    "newFailed" : false,
    "parameters" : [ "chrome-80.0.3987.132" ]
  }, {
    "name" : "Given I have accessed login url \"https://app.hubspot.com/login\"",
    "uid" : "d6fc045bff81cde1",
    "parentUid" : "b1a8273437954620fa374b796ffaacdd",
    "status" : "passed",
    "time" : {
      "start" : 1584534670966,
      "stop" : 1584534689402,
      "duration" : 18436
    },
    "flaky" : false,
    "newFailed" : false,
    "parameters" : [ "chrome-80.0.3987.132" ]
  }, {
    "name" : "When I set \"WebdriverIO\" to the inputfield \"[name='q']\"",
    "uid" : "2bee9294acdfefcf",
    "parentUid" : "b1a8273437954620fa374b796ffaacdd",
    "status" : "broken",
    "time" : {
      "start" : 1584534670967,
      "stop" : 1584534670967,
      "duration" : 0
    },
    "flaky" : false,
    "newFailed" : false,
    "parameters" : [ "chrome-80.0.3987.132" ]
  }, {
    "name" : "Then I expect that the title is \"WebdriverIO - Google Search\"",
    "uid" : "bcd2cd8a211afb41",
    "parentUid" : "b1a8273437954620fa374b796ffaacdd",
    "status" : "broken",
    "time" : {
      "start" : 1584534670968,
      "stop" : 1584534670969,
      "duration" : 1
    },
    "flaky" : false,
    "newFailed" : false,
    "parameters" : [ "chrome-80.0.3987.132" ]
  }, {
    "name" : "And I press \"Enter\"",
    "uid" : "303117c91fdf372e",
    "parentUid" : "b1a8273437954620fa374b796ffaacdd",
    "status" : "broken",
    "time" : {
      "start" : 1584534670968,
      "stop" : 1584534670968,
      "duration" : 0
    },
    "flaky" : false,
    "newFailed" : false,
    "parameters" : [ "chrome-80.0.3987.132" ]
  }, {
    "name" : "Hook",
    "uid" : "28fcd73e4c73d276",
    "parentUid" : "b1a8273437954620fa374b796ffaacdd",
    "status" : "passed",
    "time" : {
      "start" : 1584534670969,
      "stop" : 1584534670970,
      "duration" : 1
    },
    "flaky" : false,
    "newFailed" : false,
    "parameters" : [ "chrome-80.0.3987.132" ]
  }, {
    "name" : "When I enter username \"sharma.rajeshwar6@gmail.com\"",
    "uid" : "3e16e46265ca519f",
    "parentUid" : "b1a8273437954620fa374b796ffaacdd",
    "status" : "passed",
    "time" : {
      "start" : 1584534689402,
      "stop" : 1584534689879,
      "duration" : 477
    },
    "flaky" : false,
    "newFailed" : false,
    "parameters" : [ "chrome-80.0.3987.132" ]
  }, {
    "name" : "And I enter password \"Rajeshwar@96\"",
    "uid" : "f4f1e44cff9de6b8",
    "parentUid" : "b1a8273437954620fa374b796ffaacdd",
    "status" : "passed",
    "time" : {
      "start" : 1584534689879,
      "stop" : 1584534690150,
      "duration" : 271
    },
    "flaky" : false,
    "newFailed" : false,
    "parameters" : [ "chrome-80.0.3987.132" ]
  }, {
    "name" : "And I enter login button",
    "uid" : "7fe5b508ef037ba2",
    "parentUid" : "b1a8273437954620fa374b796ffaacdd",
    "status" : "passed",
    "time" : {
      "start" : 1584534690150,
      "stop" : 1584534694367,
      "duration" : 4217
    },
    "flaky" : false,
    "newFailed" : false,
    "parameters" : [ "chrome-80.0.3987.132" ]
  }, {
    "name" : "Then I should able to see \"Restart demo\"",
    "uid" : "6dad19dbe42268eb",
    "parentUid" : "b1a8273437954620fa374b796ffaacdd",
    "status" : "passed",
    "time" : {
      "start" : 1584534694367,
      "stop" : 1584534697481,
      "duration" : 3114
    },
    "flaky" : false,
    "newFailed" : false,
    "parameters" : [ "chrome-80.0.3987.132" ]
  }, {
    "name" : "Hook",
    "uid" : "85119958524117a2",
    "parentUid" : "b1a8273437954620fa374b796ffaacdd",
    "status" : "passed",
    "time" : {
      "start" : 1584534697482,
      "stop" : 1584534697482,
      "duration" : 0
    },
    "flaky" : false,
    "newFailed" : false,
    "parameters" : [ "chrome-80.0.3987.132" ]
  }, {
    "name" : "When I enter username \"sharma.rajeshwar9@gmail.com\"",
    "uid" : "78dc24b30524ea41",
    "parentUid" : "b1a8273437954620fa374b796ffaacdd",
    "status" : "passed",
    "time" : {
      "start" : 1584534705326,
      "stop" : 1584534705662,
      "duration" : 336
    },
    "flaky" : false,
    "newFailed" : false,
    "parameters" : [ "chrome-80.0.3987.132" ]
  }, {
    "name" : "Then I should able to see \"Please check your entry and try again.\"",
    "uid" : "1ce9cbbf46474730",
    "parentUid" : "b1a8273437954620fa374b796ffaacdd",
    "status" : "passed",
    "time" : {
      "start" : 1584534709969,
      "stop" : 1584534713015,
      "duration" : 3046
    },
    "flaky" : false,
    "newFailed" : false,
    "parameters" : [ "chrome-80.0.3987.132" ]
  }, {
    "name" : "Given I have accessed login url \"https://app.hubspot.com/login\"",
    "uid" : "32a5d4445fd28629",
    "parentUid" : "b1a8273437954620fa374b796ffaacdd",
    "status" : "passed",
    "time" : {
      "start" : 1584534713033,
      "stop" : 1584534720776,
      "duration" : 7743
    },
    "flaky" : false,
    "newFailed" : false,
    "parameters" : [ "chrome-80.0.3987.132" ]
  }, {
    "name" : "When I enter username \"sharma.rajeshwar6@gmail.com\"",
    "uid" : "fbfaf1d469f290b6",
    "parentUid" : "b1a8273437954620fa374b796ffaacdd",
    "status" : "passed",
    "time" : {
      "start" : 1584534720776,
      "stop" : 1584534721375,
      "duration" : 599
    },
    "flaky" : false,
    "newFailed" : false,
    "parameters" : [ "chrome-80.0.3987.132" ]
  }, {
    "name" : "And I enter password \"password\"",
    "uid" : "9103f1cf48796142",
    "parentUid" : "b1a8273437954620fa374b796ffaacdd",
    "status" : "passed",
    "time" : {
      "start" : 1584534721375,
      "stop" : 1584534721748,
      "duration" : 373
    },
    "flaky" : false,
    "newFailed" : false,
    "parameters" : [ "chrome-80.0.3987.132" ]
  }, {
    "name" : "And I enter login button",
    "uid" : "ebfdc2d4d1970cac",
    "parentUid" : "b1a8273437954620fa374b796ffaacdd",
    "status" : "passed",
    "time" : {
      "start" : 1584534721748,
      "stop" : 1584534725927,
      "duration" : 4179
    },
    "flaky" : false,
    "newFailed" : false,
    "parameters" : [ "chrome-80.0.3987.132" ]
  }, {
    "name" : "Given I have accessed login url \"https://app.hubspot.com/login\"",
    "uid" : "35f7bfe9ab64b038",
    "parentUid" : "b1a8273437954620fa374b796ffaacdd",
    "status" : "passed",
    "time" : {
      "start" : 1584534722366,
      "stop" : 1584534731711,
      "duration" : 9345
    },
    "flaky" : false,
    "newFailed" : false,
    "parameters" : [ "chrome-80.0.3987.132" ]
  }, {
    "name" : "Then I should able to see \"entered an invalid password\"",
    "uid" : "bd80ac144a83ea27",
    "parentUid" : "b1a8273437954620fa374b796ffaacdd",
    "status" : "passed",
    "time" : {
      "start" : 1584534725927,
      "stop" : 1584534729175,
      "duration" : 3248
    },
    "flaky" : false,
    "newFailed" : false,
    "parameters" : [ "chrome-80.0.3987.132" ]
  }, {
    "name" : "Hook",
    "uid" : "dc6c0edcb974fa18",
    "parentUid" : "b1a8273437954620fa374b796ffaacdd",
    "status" : "passed",
    "time" : {
      "start" : 1584534729176,
      "stop" : 1584534729176,
      "duration" : 0
    },
    "flaky" : false,
    "newFailed" : false,
    "parameters" : [ "chrome-80.0.3987.132" ]
  }, {
    "name" : "When I enter username \"sharma.rajeshwar6@gmail.com\"",
    "uid" : "ed610fc21f37f79a",
    "parentUid" : "b1a8273437954620fa374b796ffaacdd",
    "status" : "passed",
    "time" : {
      "start" : 1584534731711,
      "stop" : 1584534733574,
      "duration" : 1863
    },
    "flaky" : false,
    "newFailed" : false,
    "parameters" : [ "chrome-80.0.3987.132" ]
  }, {
    "name" : "And I enter password \"Rajeshwar@96\"",
    "uid" : "143d41424cfb85e6",
    "parentUid" : "b1a8273437954620fa374b796ffaacdd",
    "status" : "passed",
    "time" : {
      "start" : 1584534733574,
      "stop" : 1584534733800,
      "duration" : 226
    },
    "flaky" : false,
    "newFailed" : false,
    "parameters" : [ "chrome-80.0.3987.132" ]
  }, {
    "name" : "And I enter login button",
    "uid" : "4c9b65e2bd15a060",
    "parentUid" : "b1a8273437954620fa374b796ffaacdd",
    "status" : "passed",
    "time" : {
      "start" : 1584534733800,
      "stop" : 1584534738384,
      "duration" : 4584
    },
    "flaky" : false,
    "newFailed" : false,
    "parameters" : [ "chrome-80.0.3987.132" ]
  }, {
    "name" : "And I click on \"Contacts\" menu item",
    "uid" : "f73422bb442a095c",
    "parentUid" : "b1a8273437954620fa374b796ffaacdd",
    "status" : "passed",
    "time" : {
      "start" : 1584534738384,
      "stop" : 1584534743621,
      "duration" : 5237
    },
    "flaky" : false,
    "newFailed" : false,
    "parameters" : [ "chrome-80.0.3987.132" ]
  }, {
    "name" : "And I click on \"Contacts\" from drop down menu list",
    "uid" : "5b900cc16dab78d0",
    "parentUid" : "b1a8273437954620fa374b796ffaacdd",
    "status" : "passed",
    "time" : {
      "start" : 1584534743622,
      "stop" : 1584534747668,
      "duration" : 4046
    },
    "flaky" : false,
    "newFailed" : false,
    "parameters" : [ "chrome-80.0.3987.132" ]
  }, {
    "name" : "When I enter search text \"Mike\"",
    "uid" : "3e963edbd0e4ccd",
    "parentUid" : "b1a8273437954620fa374b796ffaacdd",
    "status" : "passed",
    "time" : {
      "start" : 1584534747668,
      "stop" : 1584534751850,
      "duration" : 4182
    },
    "flaky" : false,
    "newFailed" : false,
    "parameters" : [ "chrome-80.0.3987.132" ]
  }, {
    "name" : "Then I should able to see \"Mike Tyson\" under column 2",
    "uid" : "7ba770ca9df9ebbf",
    "parentUid" : "b1a8273437954620fa374b796ffaacdd",
    "status" : "passed",
    "time" : {
      "start" : 1584534751850,
      "stop" : 1584534751903,
      "duration" : 53
    },
    "flaky" : false,
    "newFailed" : false,
    "parameters" : [ "chrome-80.0.3987.132" ]
  }, {
    "name" : "And I should able to see \"mike.tyson@hollywood.com\" under column 3",
    "uid" : "f97fa97c23e8da91",
    "parentUid" : "b1a8273437954620fa374b796ffaacdd",
    "status" : "passed",
    "time" : {
      "start" : 1584534751903,
      "stop" : 1584534751947,
      "duration" : 44
    },
    "flaky" : false,
    "newFailed" : false,
    "parameters" : [ "chrome-80.0.3987.132" ]
  }, {
    "name" : "And I should able to see \"253363728\" under column 4",
    "uid" : "cbc9550361b6d405",
    "parentUid" : "b1a8273437954620fa374b796ffaacdd",
    "status" : "passed",
    "time" : {
      "start" : 1584534751947,
      "stop" : 1584534751993,
      "duration" : 46
    },
    "flaky" : false,
    "newFailed" : false,
    "parameters" : [ "chrome-80.0.3987.132" ]
  }, {
    "name" : "Hook",
    "uid" : "392a386aadb1faea",
    "parentUid" : "b1a8273437954620fa374b796ffaacdd",
    "status" : "passed",
    "time" : {
      "start" : 1584534751993,
      "stop" : 1584534751994,
      "duration" : 1
    },
    "flaky" : false,
    "newFailed" : false,
    "parameters" : [ "chrome-80.0.3987.132" ]
  } ]
}